{
  "name": "GMS",
  "description": "",
  "json_class": "Chef::Role",
  "default_attributes": {
    "users": [
      "jmyang",
      "sundong",
      "soollung",
      "nbkjy",
      "midtics",
      "com2usadmin"
    ],
    "delete_users": [
      "com2usadmin"
    ]
  },
  "override_attributes": {

  },
  "chef_type": "role",
  "run_list": [
    "recipe[pdns]"
  ],
  "env_run_lists": {

  }
}
