{
  "name": "HIVEES",
  "description": "",
  "json_class": "Chef::Role",
  "default_attributes": {
    "users": [
      "eunsik",
      "kdbae",
      "sundong",
      "tallmang",
      "com2usadmin",
      "yechanpark",
      "jmyang",
      "junhogcp",
      "kenshin",
      "onlykda"
    ],
    "delete_users": [
    ]
  },
  "override_attributes": {

  },
  "chef_type": "role",
  "run_list": [
    "recipe[pdns]"
  ],
  "env_run_lists": {

  }
}
