{
  "name": "L_BZONE",
  "description": "",
  "json_class": "Chef::Role",
  "default_attributes": {
    "tcpwrapper": {
      "allow_public": [
        "172.16.0.0/255.240.0.0"
      ]
    },
    "gcptcpwrapper": {
      "allow_public": [
        "172.16.0.0/255.240.0.0"
      ]
    }
  },
  "override_attributes": {

  },
  "chef_type": "role",
  "run_list": [

  ],
  "env_run_lists": {

  }
}
