{
  "name": "L_KTIDC",
  "description": "",
  "json_class": "Chef::Role",
  "default_attributes": {
    "tcpwrapper": {
      "allow_public": [
        "10.100.100.",
        "10.100.101.",
        "172.21.0.",
        "172.21.1.",
        "172.17.0.",
        "10.10.243."
      ],
      "allow_admins": [
        "112.175.46.83"
      ]
    },
    "gcptcpwrapper": {
      "allow_public": [
        "10.100.100.",
        "10.100.101.",
        "172.21.0.",
        "172.21.1.",
        "172.17.0.",
        "10.10.243."
      ],
      "allow_admins": [
        "112.175.46.83"
      ]
    },
      "gzabbix-agent": {
        "config": {
            "serveractive": "112.175.46.211",
            "server": [
                "112.175.46.211"
            ]
        }
    }
  },
  "override_attributes": {

  },
  "chef_type": "role",
  "run_list": [
    "recipe[pdns]",
    "recipe[observium-agent]"
  ],
  "env_run_lists": {

  }
}
