{
  "name": "LOGINCENTER",
  "description": "",
  "json_class": "Chef::Role",
  "default_attributes": {
    "users": [
      "com2usadmin",
      "sanggon",
      "eunsik",
      "kdbae",
      "tallmang",
      "yechanpark",
      "jmyang",
      "junhogcp",
      "kenshin",
      "onlykda"
    ],
    "delete_users": [
    ],
    "openssh": {
      "allow_dev": [
        "112.175.46.55"
      ]
    },
    "packages": {
      "install": [
        "td-agent",
        "GeoIP",
        "GeoIP-devel"
      ]
    }
  },
  "override_attributes": {

  },
  "chef_type": "role",
  "run_list": [
    "recipe[pdns]"
  ],
  "env_run_lists": {

  }
}
