{
  "name": "PUBLICMODULE",
  "description": "",
  "json_class": "Chef::Role",
  "default_attributes": {
    "users": [
      "com2usadmin",
      "syseo",
      "sanggon",
      "kenshin"
    ],
    "packages": {
      "install": [
        "GeoIP",
        "GeoIP-devel"
      ]
    }
  },
  "override_attributes": {

  },
  "chef_type": "role",
  "run_list": [

  ],
  "env_run_lists": {

  }
}
