{
  "name": "S_BSBACK",
  "description": "",
  "json_class": "Chef::Role",
  "default_attributes": {

  },
  "override_attributes": {

  },
  "chef_type": "role",
  "run_list": [

  ],
  "env_run_lists": {

  }
}
