{
  "name": "S_CRAWLBACKOFFICE",
  "description": "",
  "json_class": "Chef::Role",
  "default_attributes": {
    "packages": {
      "install": [
        "jdk1.8.0_45"
      ]
    }
  },
  "override_attributes": {

  },
  "chef_type": "role",
  "run_list": [

  ],
  "env_run_lists": {

  }
}
