{
  "name": "S_HIVESOCIAL",
  "description": "",
  "json_class": "Chef::Role",
  "default_attributes": {
    "tcpwrapper": {
        "allow_users": [
            "112.175.46.55"
        ]
    }

  },
  "override_attributes": {

  },
  "chef_type": "role",
  "run_list": [

  ],
  "env_run_lists": {

  }
}
