{
  "name": "S_HIVECOUPON",
  "description": "",
  "json_class": "Chef::Role",
  "default_attributes": {
    "yum-repo": {
      "php56": true
    },
    "tcpwrapper": {
      "allow_users": [
        "112.175.46.55"
      ]
    },
    "php": {
      "packages": [
        "php-mysqli"
      ]
    },
    "php-fpm": {
      "max_children": "100"
    }
  },
  "override_attributes": {

  },
  "chef_type": "role",
  "run_list": [
    "recipe[pdns]",
    "recipe[nginx2017]",
    "recipe[php-fpm2016]"
  ],
  "env_run_lists": {

  }
}
